[
    { "inputs": [], "name": "EmptyTiles", "type": "error" },
    { "inputs": [], "name": "NotCFAv1", "type": "error" },
    { "inputs": [], "name": "NotHost", "type": "error" },
    { "inputs": [], "name": "NotSuperToken", "type": "error" },
    { "inputs": [], "name": "ZeroAddress", "type": "error" },
    {
        "anonymous": false,
        "inputs": [{ "indexed": false, "internalType": "uint8", "name": "version", "type": "uint8" }],
        "name": "Initialized",
        "type": "event"
    },
    {
        "anonymous": false,
        "inputs": [
            { "indexed": true, "internalType": "address", "name": "previousOwner", "type": "address" },
            { "indexed": true, "internalType": "address", "name": "newOwner", "type": "address" }
        ],
        "name": "OwnershipTransferred",
        "type": "event"
    },
    {
        "anonymous": false,
        "inputs": [{ "indexed": true, "internalType": "address", "name": "sender", "type": "address" }],
        "name": "TerminationCallReverted",
        "type": "event"
    },
    {
        "inputs": [],
        "name": "acceptedToken1",
        "outputs": [{ "internalType": "contract ISuperToken", "name": "", "type": "address" }],
        "stateMutability": "view",
        "type": "function"
    },
    {
        "inputs": [],
        "name": "acceptedToken2",
        "outputs": [{ "internalType": "contract ISuperToken", "name": "", "type": "address" }],
        "stateMutability": "view",
        "type": "function"
    },
    {
        "inputs": [
            { "internalType": "contract ISuperToken", "name": "superToken", "type": "address" },
            { "internalType": "address", "name": "agreementClass", "type": "address" },
            { "internalType": "bytes32", "name": "", "type": "bytes32" },
            { "internalType": "bytes", "name": "agreementData", "type": "bytes" },
            { "internalType": "bytes", "name": "", "type": "bytes" },
            { "internalType": "bytes", "name": "ctx", "type": "bytes" }
        ],
        "name": "afterAgreementCreated",
        "outputs": [{ "internalType": "bytes", "name": "newCtx", "type": "bytes" }],
        "stateMutability": "nonpayable",
        "type": "function"
    },
    {
        "inputs": [
            { "internalType": "contract ISuperToken", "name": "superToken", "type": "address" },
            { "internalType": "address", "name": "agreementClass", "type": "address" },
            { "internalType": "bytes32", "name": "", "type": "bytes32" },
            { "internalType": "bytes", "name": "agreementData", "type": "bytes" },
            { "internalType": "bytes", "name": "", "type": "bytes" },
            { "internalType": "bytes", "name": "ctx", "type": "bytes" }
        ],
        "name": "afterAgreementTerminated",
        "outputs": [{ "internalType": "bytes", "name": "", "type": "bytes" }],
        "stateMutability": "nonpayable",
        "type": "function"
    },
    {
        "inputs": [
            { "internalType": "contract ISuperToken", "name": "superToken", "type": "address" },
            { "internalType": "address", "name": "agreementClass", "type": "address" },
            { "internalType": "bytes32", "name": "", "type": "bytes32" },
            { "internalType": "bytes", "name": "agreementData", "type": "bytes" },
            { "internalType": "bytes", "name": "cbdata", "type": "bytes" },
            { "internalType": "bytes", "name": "ctx", "type": "bytes" }
        ],
        "name": "afterAgreementUpdated",
        "outputs": [{ "internalType": "bytes", "name": "newCtx", "type": "bytes" }],
        "stateMutability": "nonpayable",
        "type": "function"
    },
    {
        "inputs": [
            { "internalType": "contract ISuperToken", "name": "superToken", "type": "address" },
            { "internalType": "address", "name": "to", "type": "address" },
            { "internalType": "uint256", "name": "amount", "type": "uint256" }
        ],
        "name": "approve",
        "outputs": [],
        "stateMutability": "nonpayable",
        "type": "function"
    },
    {
        "inputs": [
            { "internalType": "contract ISuperToken", "name": "", "type": "address" },
            { "internalType": "address", "name": "", "type": "address" },
            { "internalType": "bytes32", "name": "", "type": "bytes32" },
            { "internalType": "bytes", "name": "", "type": "bytes" },
            { "internalType": "bytes", "name": "", "type": "bytes" }
        ],
        "name": "beforeAgreementCreated",
        "outputs": [{ "internalType": "bytes", "name": "", "type": "bytes" }],
        "stateMutability": "view",
        "type": "function"
    },
    {
        "inputs": [
            { "internalType": "contract ISuperToken", "name": "", "type": "address" },
            { "internalType": "address", "name": "", "type": "address" },
            { "internalType": "bytes32", "name": "", "type": "bytes32" },
            { "internalType": "bytes", "name": "", "type": "bytes" },
            { "internalType": "bytes", "name": "", "type": "bytes" }
        ],
        "name": "beforeAgreementTerminated",
        "outputs": [{ "internalType": "bytes", "name": "", "type": "bytes" }],
        "stateMutability": "view",
        "type": "function"
    },
    {
        "inputs": [
            { "internalType": "contract ISuperToken", "name": "superToken", "type": "address" },
            { "internalType": "address", "name": "", "type": "address" },
            { "internalType": "bytes32", "name": "", "type": "bytes32" },
            { "internalType": "bytes", "name": "agreementData", "type": "bytes" },
            { "internalType": "bytes", "name": "", "type": "bytes" }
        ],
        "name": "beforeAgreementUpdated",
        "outputs": [{ "internalType": "bytes", "name": "cbdata", "type": "bytes" }],
        "stateMutability": "view",
        "type": "function"
    },
    {
        "inputs": [],
        "name": "cfa",
        "outputs": [{ "internalType": "contract IConstantFlowAgreementV1", "name": "", "type": "address" }],
        "stateMutability": "view",
        "type": "function"
    },
    {
        "inputs": [
            { "internalType": "address", "name": "superToken", "type": "address" },
            { "internalType": "address", "name": "player", "type": "address" }
        ],
        "name": "getFlowRate",
        "outputs": [{ "internalType": "int96", "name": "", "type": "int96" }],
        "stateMutability": "view",
        "type": "function"
    },
    {
        "inputs": [],
        "name": "host",
        "outputs": [{ "internalType": "contract ISuperfluid", "name": "", "type": "address" }],
        "stateMutability": "view",
        "type": "function"
    },
    {
        "inputs": [
            { "internalType": "address", "name": "_host", "type": "address" },
            { "internalType": "address", "name": "_acceptedToken1", "type": "address" },
            { "internalType": "address", "name": "_acceptedToken2", "type": "address" },
            { "internalType": "address", "name": "_missionControl", "type": "address" }
        ],
        "name": "initialize",
        "outputs": [],
        "stateMutability": "nonpayable",
        "type": "function"
    },
    {
        "inputs": [],
        "name": "missionControl",
        "outputs": [{ "internalType": "contract IMissionControlExtension", "name": "", "type": "address" }],
        "stateMutability": "view",
        "type": "function"
    },
    {
        "inputs": [],
        "name": "owner",
        "outputs": [{ "internalType": "address", "name": "", "type": "address" }],
        "stateMutability": "view",
        "type": "function"
    },
    { "inputs": [], "name": "renounceOwnership", "outputs": [], "stateMutability": "nonpayable", "type": "function" },
    {
        "inputs": [{ "internalType": "address", "name": "newOwner", "type": "address" }],
        "name": "transferOwnership",
        "outputs": [],
        "stateMutability": "nonpayable",
        "type": "function"
    }
]
